﻿// This class is auto generated

using System;
using System.Collections.Generic;

namespace DenchyaknowAttributes.Editor
{
    public static class __classname__
    {
        private static Dictionary<Type, MethodDrawer> drawersByAttributeType;

        static __classname__()
        {
            drawersByAttributeType = new Dictionary<Type, MethodDrawer>();
            __entries__
        }

        public static MethodDrawer GetDrawerForAttribute(Type attributeType)
        {
            MethodDrawer drawer;
            if (drawersByAttributeType.TryGetValue(attributeType, out drawer))
            {
                return drawer;
            }
            else
            {
                return null;
            }
        }
    }
}
