﻿// This class is auto generated

using System;
using System.Collections.Generic;

namespace DenchyaknowAttributes.Editor
{
    public static class __classname__
    {
        private static Dictionary<Type, PropertyValidator> validatorsByAttributeType;

        static __classname__()
        {
            validatorsByAttributeType = new Dictionary<Type, PropertyValidator>();
            __entries__
        }

        public static PropertyValidator GetValidatorForAttribute(Type attributeType)
        {
            PropertyValidator validator;
            if (validatorsByAttributeType.TryGetValue(attributeType, out validator))
            {
                return validator;
            }
            else
            {
                return null;
            }
        }
    }
}
